{
  "version": "1.0.0-*",

  "testRunner": "xunit",

  "dependencies": {
    "xunit": "2.1.0",
    "System.Diagnostics.TraceSource": "4.3.0",
    "Microsoft.Extensions.Logging": "1.1.0",
    "Microsoft.AspNetCore.Mvc": "1.1.0",
    "LoremIpsumCMS.Web": "1.0.0-*",
    "LoremIpsumCMS": "1.0.0-*",
    "LoremIpsumCMS.TestHelpers": "1.0.0-*",
    "Moq": "4.6.38-alpha",
    "dotnet-test-xunit": "2.2.0-preview2-build1029",
    "coveralls.net": "0.8.0-unstable0013"
  },

  "frameworks": {
    "netcoreapp1.1": {
      "dependencies": {
        "Microsoft.NETCore.App": {
          "type": "platform",
          "version": "1.1.0"
        },
        "Microsoft.DotNet.InternalAbstractions": "1.0.1-beta-003206"
      },
      "imports": [
        "dnxcore50",
        "portable-net45+win8"
      ]
    }
  },

  "buildOptions": {
    "embed": [
      "**/EmbeddedFiles/**"
    ]
  }

}